…
*Reading Professor Trash Wheel into the R Project in a comparable manner
as above.*

*Stacking Mr. Trash Wheel and Professor Trash Wheel and relocating the
`wheel` and `dumpster` variables to the left side of the dataset for
easy viewing.*

    ## # A tibble: 641 × 15
    ##    wheel dumps…¹ month  year date                weigh…² volum…³ plast…⁴ polys…⁵
    ##    <chr>   <dbl> <chr> <dbl> <dttm>                <dbl>   <dbl>   <dbl>   <dbl>
    ##  1 mist…       1 May    2014 2014-05-16 00:00:00    4.31      18    1450    1820
    ##  2 mist…       2 May    2014 2014-05-16 00:00:00    2.74      13    1120    1030
    ##  3 mist…       3 May    2014 2014-05-16 00:00:00    3.45      15    2450    3100
    ##  4 mist…       4 May    2014 2014-05-17 00:00:00    3.1       15    2380    2730
    ##  5 mist…       5 May    2014 2014-05-17 00:00:00    4.06      18     980     870
    ##  6 mist…       6 May    2014 2014-05-20 00:00:00    2.71      13    1430    2140
    ##  7 mist…       7 May    2014 2014-05-21 00:00:00    1.91       8     910    1090
    ##  8 mist…       8 May    2014 2014-05-28 00:00:00    3.7       16    3580    4310
    ##  9 mist…       9 June   2014 2014-06-05 00:00:00    2.52      14    2400    2790
    ## 10 mist…      10 June   2014 2014-06-11 00:00:00    3.76      18    1340    1730
    ## # … with 631 more rows, 6 more variables: cigarette_butts <dbl>,
    ## #   glass_bottles <dbl>, grocery_bags <dbl>, chip_bags <dbl>,
    ## #   sports_balls <int>, homes_powered <dbl>, and abbreviated variable names
    ## #   ¹​dumpster, ²​weight_tons, ³​volume_cubic_yards, ⁴​plastic_bottles,
    ## #   ⁵​polystyrene
…
-   The total weight of trash collected by Professor Trash Wheel was
    **190.12 tons**.

-   The total number of sports balls collected by Mr. Trash Wheel in
    2020 was **856**.

# Problem 3

*Importing pols_data.csv and cleaning it.*

    ## # A tibble: 822 × 9
    ##     year month     gov_gop sen_gop rep_gop gov_dem sen_dem rep_dem president
    ##    <int> <chr>       <dbl>   <dbl>   <dbl>   <dbl>   <dbl>   <dbl> <chr>    
    ##  1  1947 january        23      51     253      23      45     198 dem      
    ##  2  1947 february       23      51     253      23      45     198 dem      
    ##  3  1947 march          23      51     253      23      45     198 dem      
    ##  4  1947 april          23      51     253      23      45     198 dem      
    ##  5  1947 may            23      51     253      23      45     198 dem      
    ##  6  1947 june           23      51     253      23      45     198 dem      
    ##  7  1947 july           23      51     253      23      45     198 dem      
    ##  8  1947 august         23      51     253      23      45     198 dem      
    ##  9  1947 september      23      51     253      23      45     198 dem      
    ## 10  1947 october        23      51     253      23      45     198 dem      
    ## # … with 812 more rows

*Importing snp.csv and cleaning it.*

    ## # A tibble: 787 × 4
    ##     year month      day close
    ##    <dbl> <chr>    <int> <dbl>
    ##  1  2015 july         1 2080.
    ##  2  2015 june         1 2063.
    ##  3  2015 may          1 2107.
    ##  4  2015 april        1 2086.
    ##  5  2015 march        2 2068.
    ##  6  2015 february     2 2104.
    ##  7  2015 january      2 1995.
    ##  8  2014 december     1 2059.
    ##  9  2014 november     3 2068.
    ## 10  2014 october      1 2018.
    ## # … with 777 more rows

*Now importing and cleaning unemployment.csv*

    ## # A tibble: 816 × 3
    ##     year month     unemployment_rate
    ##    <dbl> <chr>                 <dbl>
    ##  1  1948 january                 3.4
    ##  2  1948 february                3.8
    ##  3  1948 march                   4  
    ##  4  1948 april                   3.9
    ##  5  1948 may                     3.5
    ##  6  1948 june                    3.6
    ##  7  1948 july                    3.6
    ##  8  1948 august                  3.9
    ##  9  1948 september               3.8
    ## 10  1948 october                 3.7
    ## # … with 806 more rows

*Merging snp into pols to create a new dataframe, pols_and_snp.*

    ## # A tibble: 9,438 × 12
    ##     year month.x gov_gop sen_gop rep_gop gov_dem sen_dem rep_dem presi…¹ month.y
    ##    <dbl> <chr>     <dbl>   <dbl>   <dbl>   <dbl>   <dbl>   <dbl> <chr>   <chr>  
    ##  1  1947 january      23      51     253      23      45     198 dem     <NA>   
    ##  2  1947 februa…      23      51     253      23      45     198 dem     <NA>   
    ##  3  1947 march        23      51     253      23      45     198 dem     <NA>   
    ##  4  1947 april        23      51     253      23      45     198 dem     <NA>   
    ##  5  1947 may          23      51     253      23      45     198 dem     <NA>   
    ##  6  1947 june         23      51     253      23      45     198 dem     <NA>   
    ##  7  1947 july         23      51     253      23      45     198 dem     <NA>   
    ##  8  1947 august       23      51     253      23      45     198 dem     <NA>   
    ##  9  1947 septem…      23      51     253      23      45     198 dem     <NA>   
    ## 10  1947 october      23      51     253      23      45     198 dem     <NA>   
    ## # … with 9,428 more rows, 2 more variables: day <int>, close <dbl>, and
    ## #   abbreviated variable name ¹​president

*Merging unemployment in the result of merging snp into pols to create a
large and final dataframe, economic_data.*

    ## # A tibble: 113,124 × 14
    ##     year month.x gov_gop sen_gop rep_gop gov_dem sen_dem rep_dem presi…¹ month.y
    ##    <dbl> <chr>     <dbl>   <dbl>   <dbl>   <dbl>   <dbl>   <dbl> <chr>   <chr>  
    ##  1  1947 january      23      51     253      23      45     198 dem     <NA>   
    ##  2  1947 februa…      23      51     253      23      45     198 dem     <NA>   
    ##  3  1947 march        23      51     253      23      45     198 dem     <NA>   
    ##  4  1947 april        23      51     253      23      45     198 dem     <NA>   
    ##  5  1947 may          23      51     253      23      45     198 dem     <NA>   
    ##  6  1947 june         23      51     253      23      45     198 dem     <NA>   
    ##  7  1947 july         23      51     253      23      45     198 dem     <NA>   
    ##  8  1947 august       23      51     253      23      45     198 dem     <NA>   
    ##  9  1947 septem…      23      51     253      23      45     198 dem     <NA>   
    ## 10  1947 october      23      51     253      23      45     198 dem     <NA>   
    ## # … with 113,114 more rows, 4 more variables: day <int>, close <dbl>,
    ## #   month <chr>, unemployment_rate <dbl>, and abbreviated variable name
    ## #   ¹​president
…
